<?xml version="1.0" encoding="UTF-8" standalone="no"?>
<!-- Created with Inkscape (http://www.inkscape.org/) -->

<svg
   xmlns:dc="http://purl.org/dc/elements/1.1/"
   xmlns:cc="http://creativecommons.org/ns#"
   xmlns:rdf="http://www.w3.org/1999/02/22-rdf-syntax-ns#"
   xmlns:svg="http://www.w3.org/2000/svg"
   xmlns="http://www.w3.org/2000/svg"
   xmlns:sodipodi="http://sodipodi.sourceforge.net/DTD/sodipodi-0.dtd"
   xmlns:inkscape="http://www.inkscape.org/namespaces/inkscape"
   width="10.562246in"
   height="2.4718714in"
   viewBox="0 0 268.28106 62.785533"
   version="1.1"
   id="svg8"
   inkscape:version="0.92.1 r15371"
   sodipodi:docname="control_versiones_simple.svg"
   inkscape:export-filename="/home/david/Proyectos/Presentaciones_CursoProgramacionOOCC/3_git_elemental/img/control_versiones_simple.png"
   inkscape:export-xdpi="96"
   inkscape:export-ydpi="96">
  <defs
     id="defs2">
    <marker
       inkscape:stockid="Arrow1Mend"
       orient="auto"
       refY="0"
       refX="0"
       id="marker1443"
       style="overflow:visible"
       inkscape:isstock="true">
      <path
         id="path1441"
         d="M 0,0 5,-5 -12.5,0 5,5 Z"
         style="fill:#000000;fill-opacity:1;fill-rule:evenodd;stroke:#000000;stroke-width:1.00000003pt;stroke-opacity:1"
         transform="matrix(-0.4,0,0,-0.4,-4,0)"
         inkscape:connector-curvature="0" />
    </marker>
    <marker
       inkscape:isstock="true"
       style="overflow:visible"
       id="marker1173"
       refX="0"
       refY="0"
       orient="auto"
       inkscape:stockid="Arrow1Mend"
       inkscape:collect="always">
      <path
         transform="matrix(-0.4,0,0,-0.4,-4,0)"
         style="fill:#000000;fill-opacity:1;fill-rule:evenodd;stroke:#000000;stroke-width:1.00000003pt;stroke-opacity:1"
         d="M 0,0 5,-5 -12.5,0 5,5 Z"
         id="path1171"
         inkscape:connector-curvature="0" />
    </marker>
    <marker
       inkscape:stockid="Arrow1Mend"
       orient="auto"
       refY="0"
       refX="0"
       id="Arrow1Mend"
       style="overflow:visible"
       inkscape:isstock="true"
       inkscape:collect="always">
      <path
         id="path896"
         d="M 0,0 5,-5 -12.5,0 5,5 Z"
         style="fill:#000000;fill-opacity:1;fill-rule:evenodd;stroke:#000000;stroke-width:1.00000003pt;stroke-opacity:1"
         transform="matrix(-0.4,0,0,-0.4,-4,0)"
         inkscape:connector-curvature="0" />
    </marker>
  </defs>
  <sodipodi:namedview
     id="base"
     pagecolor="#ffffff"
     bordercolor="#666666"
     borderopacity="1.0"
     inkscape:pageopacity="0.0"
     inkscape:pageshadow="2"
     inkscape:zoom="0.7"
     inkscape:cx="475.43898"
     inkscape:cy="221.49388"
     inkscape:document-units="mm"
     inkscape:current-layer="layer1"
     showgrid="false"
     units="in"
     fit-margin-top="0"
     fit-margin-left="0"
     fit-margin-right="0"
     fit-margin-bottom="0"
     inkscape:window-width="1366"
     inkscape:window-height="709"
     inkscape:window-x="0"
     inkscape:window-y="0"
     inkscape:window-maximized="1" />
  <metadata
     id="metadata5">
    <rdf:RDF>
      <cc:Work
         rdf:about="">
        <dc:format>image/svg+xml</dc:format>
        <dc:type
           rdf:resource="http://purl.org/dc/dcmitype/StillImage" />
        <dc:title></dc:title>
      </cc:Work>
    </rdf:RDF>
  </metadata>
  <g
     inkscape:label="Capa 1"
     inkscape:groupmode="layer"
     id="layer1"
     transform="translate(-5.373612,-156.81848)">
    <circle
       style="opacity:0.509434;fill:#ff0000;fill-opacity:1;stroke:#160e0d;stroke-width:0.26458332;stroke-miterlimit:4;stroke-dasharray:0.52916663, 1.05833326;stroke-dashoffset:0;stroke-opacity:1"
       id="path10"
       cx="22.45064"
       cy="167.10701"
       r="10.156241" />
    <circle
       style="opacity:0.509434;fill:#008000;fill-opacity:1;stroke:#160e0d;stroke-width:0.26458332;stroke-miterlimit:4;stroke-dasharray:0.52916663, 1.05833326;stroke-dashoffset:0;stroke-opacity:1"
       id="circle819"
       cx="98.177002"
       cy="167.10701"
       r="10.156241" />
    <circle
       r="10.156241"
       cy="167.10701"
       cx="173.90337"
       id="circle825"
       style="opacity:0.509434;fill:#008000;fill-opacity:1;stroke:#160e0d;stroke-width:0.26458332;stroke-miterlimit:4;stroke-dasharray:0.52916663, 1.05833326;stroke-dashoffset:0;stroke-opacity:1" />
    <circle
       style="opacity:0.509434;fill:#008000;fill-opacity:1;stroke:#160e0d;stroke-width:0.26458332;stroke-miterlimit:4;stroke-dasharray:0.52916663, 1.05833326;stroke-dashoffset:0;stroke-opacity:1"
       id="circle827"
       cx="249.62973"
       cy="167.10701"
       r="10.156241" />
    <text
       xml:space="preserve"
       style="font-style:normal;font-weight:normal;font-size:7.25137377px;line-height:1.25;font-family:sans-serif;text-align:center;letter-spacing:0px;word-spacing:0px;text-anchor:middle;fill:#000000;fill-opacity:1;stroke:none;stroke-width:0.18128434"
       x="20.432251"
       y="190.90302"
       id="text831"><tspan
         sodipodi:role="line"
         id="tspan829"
         x="20.432251"
         y="190.90302"
         style="text-align:center;text-anchor:middle;stroke-width:0.18128434">Inicio</tspan><tspan
         sodipodi:role="line"
         x="20.432251"
         y="199.96724"
         style="text-align:center;text-anchor:middle;stroke-width:0.18128434"
         id="tspan833">de</tspan><tspan
         sodipodi:role="line"
         x="20.432251"
         y="209.03145"
         style="text-align:center;text-anchor:middle;stroke-width:0.18128434"
         id="tspan835">Proyecto</tspan></text>
    <text
       id="text843"
       y="190.90302"
       x="97.161415"
       style="font-style:normal;font-weight:normal;font-size:7.25137377px;line-height:1.25;font-family:sans-serif;text-align:center;letter-spacing:0px;word-spacing:0px;text-anchor:middle;fill:#000000;fill-opacity:1;stroke:none;stroke-width:0.18128434"
       xml:space="preserve"><tspan
         id="tspan841"
         style="text-align:center;text-anchor:middle;stroke-width:0.18128434"
         y="190.90302"
         x="97.161415"
         sodipodi:role="line">Commit:</tspan><tspan
         style="text-align:center;text-anchor:middle;stroke-width:0.18128434"
         y="199.96724"
         x="97.161415"
         sodipodi:role="line"
         id="tspan850">Se añade</tspan><tspan
         style="text-align:center;text-anchor:middle;stroke-width:0.18128434"
         y="209.03145"
         x="97.161415"
         sodipodi:role="line"
         id="tspan852">primer texto</tspan></text>
    <text
       xml:space="preserve"
       style="font-style:normal;font-weight:normal;font-size:7.25137377px;line-height:1.25;font-family:sans-serif;text-align:center;letter-spacing:0px;word-spacing:0px;text-anchor:middle;fill:#000000;fill-opacity:1;stroke:none;stroke-width:0.18128434"
       x="174.26855"
       y="190.90302"
       id="text860"><tspan
         sodipodi:role="line"
         x="174.26855"
         y="190.90302"
         style="text-align:center;text-anchor:middle;stroke-width:0.18128434"
         id="tspan854">Commit:</tspan><tspan
         id="tspan858"
         sodipodi:role="line"
         x="174.26855"
         y="199.96724"
         style="text-align:center;text-anchor:middle;stroke-width:0.18128434">Se define</tspan><tspan
         sodipodi:role="line"
         x="174.26855"
         y="209.03145"
         style="text-align:center;text-anchor:middle;stroke-width:0.18128434"
         id="tspan864">sección de autor</tspan><tspan
         sodipodi:role="line"
         x="174.26855"
         y="218.09567"
         style="text-align:center;text-anchor:middle;stroke-width:0.18128434"
         id="tspan866">y edición</tspan></text>
    <text
       id="text876"
       y="190.90302"
       x="247.97391"
       style="font-style:normal;font-weight:normal;font-size:7.25137377px;line-height:1.25;font-family:sans-serif;text-align:center;letter-spacing:0px;word-spacing:0px;text-anchor:middle;fill:#000000;fill-opacity:1;stroke:none;stroke-width:0.18128434"
       xml:space="preserve"><tspan
         id="tspan868"
         style="text-align:center;text-anchor:middle;stroke-width:0.18128434"
         y="190.90302"
         x="247.97391"
         sodipodi:role="line">Commit:</tspan><tspan
         id="tspan874"
         style="text-align:center;text-anchor:middle;stroke-width:0.18128434"
         y="199.96724"
         x="247.97391"
         sodipodi:role="line">Se agrega</tspan><tspan
         style="text-align:center;text-anchor:middle;stroke-width:0.18128434"
         y="209.03145"
         x="247.97391"
         sodipodi:role="line"
         id="tspan883">segundo texto</tspan></text>
    <path
       style="fill:none;stroke:#000000;stroke-width:1.05833328;stroke-linecap:butt;stroke-linejoin:miter;stroke-miterlimit:4;stroke-dasharray:none;stroke-opacity:1;marker-end:url(#Arrow1Mend)"
       d="M 33.072916,167.35417 H 87.12351"
       id="path885"
       inkscape:connector-curvature="0" />
    <path
       inkscape:connector-curvature="0"
       id="path1169"
       d="m 109.04613,167.35417 h 54.05059"
       style="fill:none;stroke:#000000;stroke-width:1.05833328;stroke-linecap:butt;stroke-linejoin:miter;stroke-miterlimit:4;stroke-dasharray:none;stroke-opacity:1;marker-end:url(#marker1173)" />
    <path
       style="fill:none;stroke:#000000;stroke-width:1.05833328;stroke-linecap:butt;stroke-linejoin:miter;stroke-miterlimit:4;stroke-dasharray:none;stroke-opacity:1;marker-end:url(#marker1443)"
       d="m 183.88542,167.35417 h 54.05059"
       id="path1439"
       inkscape:connector-curvature="0" />
  </g>
</svg>
