<?xml version="1.0" encoding="UTF-8" standalone="no"?>
<!-- Created with Inkscape (http://www.inkscape.org/) -->

<svg
   xmlns:dc="http://purl.org/dc/elements/1.1/"
   xmlns:cc="http://creativecommons.org/ns#"
   xmlns:rdf="http://www.w3.org/1999/02/22-rdf-syntax-ns#"
   xmlns:svg="http://www.w3.org/2000/svg"
   xmlns="http://www.w3.org/2000/svg"
   xmlns:sodipodi="http://sodipodi.sourceforge.net/DTD/sodipodi-0.dtd"
   xmlns:inkscape="http://www.inkscape.org/namespaces/inkscape"
   width="300.66309mm"
   height="67.20417mm"
   viewBox="0 0 300.66309 67.20417"
   version="1.1"
   id="svg8"
   inkscape:version="0.92.1 r15371"
   sodipodi:docname="etapa_edicion.svg"
   inkscape:export-filename="/home/david/Documentos/cursosdeprogramacion/etapa_edicion.png"
   inkscape:export-xdpi="95"
   inkscape:export-ydpi="95">
  <defs
     id="defs2">
    <marker
       inkscape:isstock="true"
       style="overflow:visible"
       id="marker1178"
       refX="0"
       refY="0"
       orient="auto"
       inkscape:stockid="Arrow1Send">
      <path
         transform="matrix(-0.2,0,0,-0.2,-1.2,0)"
         style="fill:#000000;fill-opacity:1;fill-rule:evenodd;stroke:#000000;stroke-width:1.00000003pt;stroke-opacity:1"
         d="M 0,0 5,-5 -12.5,0 5,5 Z"
         id="path1176"
         inkscape:connector-curvature="0" />
    </marker>
    <marker
       inkscape:stockid="Arrow1Send"
       orient="auto"
       refY="0"
       refX="0"
       id="Arrow1Send"
       style="overflow:visible"
       inkscape:isstock="true"
       inkscape:collect="always">
      <path
         id="path883"
         d="M 0,0 5,-5 -12.5,0 5,5 Z"
         style="fill:#000000;fill-opacity:1;fill-rule:evenodd;stroke:#000000;stroke-width:1.00000003pt;stroke-opacity:1"
         transform="matrix(-0.2,0,0,-0.2,-1.2,0)"
         inkscape:connector-curvature="0" />
    </marker>
  </defs>
  <sodipodi:namedview
     id="base"
     pagecolor="#ffffff"
     bordercolor="#666666"
     borderopacity="1.0"
     inkscape:pageopacity="0.0"
     inkscape:pageshadow="2"
     inkscape:zoom="0.35"
     inkscape:cx="379.75378"
     inkscape:cy="-236.36845"
     inkscape:document-units="mm"
     inkscape:current-layer="layer1"
     showgrid="false"
     inkscape:measure-start="0,0"
     inkscape:measure-end="0,0"
     fit-margin-top="0"
     fit-margin-left="0"
     fit-margin-right="0"
     fit-margin-bottom="0"
     inkscape:window-width="1366"
     inkscape:window-height="709"
     inkscape:window-x="0"
     inkscape:window-y="0"
     inkscape:window-maximized="1" />
  <metadata
     id="metadata5">
    <rdf:RDF>
      <cc:Work
         rdf:about="">
        <dc:format>image/svg+xml</dc:format>
        <dc:type
           rdf:resource="http://purl.org/dc/dcmitype/StillImage" />
        <dc:title></dc:title>
      </cc:Work>
    </rdf:RDF>
  </metadata>
  <g
     inkscape:label="Capa 1"
     inkscape:groupmode="layer"
     id="layer1"
     transform="translate(79.72566,-50.786309)">
    <g
       id="g857"
       transform="translate(0,0.94495201)">
      <rect
         y="75.505951"
         x="4.5357141"
         height="15.875"
         width="63.5"
         id="rect10"
         style="opacity:1;fill:#00ff00;fill-opacity:1;stroke:#000000;stroke-width:1.05833328;stroke-miterlimit:4;stroke-dasharray:none;stroke-dashoffset:0;stroke-opacity:1" />
      <rect
         style="opacity:1;fill:#ffb008;fill-opacity:1;stroke:#000000;stroke-width:1.05833328;stroke-miterlimit:4;stroke-dasharray:none;stroke-dashoffset:0;stroke-opacity:1"
         id="rect12"
         width="63.5"
         height="15.875"
         x="71.957207"
         y="75.505951" />
      <rect
         y="75.505951"
         x="139.37871"
         height="15.875"
         width="63.5"
         id="rect14"
         style="opacity:1;fill:#21f5f9;fill-opacity:1;stroke:#000000;stroke-width:1.05833328;stroke-miterlimit:4;stroke-dasharray:none;stroke-dashoffset:0;stroke-opacity:1" />
      <circle
         r="5.1449385"
         cy="83.280838"
         cx="70.225067"
         id="path821"
         style="opacity:1;fill:#f96221;fill-opacity:1;stroke:#000000;stroke-width:1.05833328;stroke-miterlimit:4;stroke-dasharray:none;stroke-dashoffset:0;stroke-opacity:1" />
      <circle
         style="opacity:1;fill:#2521f9;fill-opacity:1;stroke:#000000;stroke-width:1.05833328;stroke-miterlimit:4;stroke-dasharray:none;stroke-dashoffset:0;stroke-opacity:1"
         id="circle823"
         cx="137.12685"
         cy="83.280838"
         r="5.1449385" />
    </g>
    <g
       id="g864">
      <rect
         style="opacity:1;fill:none;fill-opacity:1;stroke:#000000;stroke-width:1.05833328;stroke-miterlimit:4;stroke-dasharray:none;stroke-dashoffset:0;stroke-opacity:1"
         id="rect825"
         width="63.5"
         height="15.875"
         x="4.5357141"
         y="51.315475" />
      <rect
         y="51.315475"
         x="71.957207"
         height="15.875"
         width="63.5"
         id="rect827"
         style="opacity:1;fill:none;fill-opacity:1;stroke:#000000;stroke-width:1.05833328;stroke-miterlimit:4;stroke-dasharray:none;stroke-dashoffset:0;stroke-opacity:1" />
      <rect
         style="opacity:1;fill:none;fill-opacity:1;stroke:#000000;stroke-width:1.05833328;stroke-miterlimit:4;stroke-dasharray:none;stroke-dashoffset:0;stroke-opacity:1"
         id="rect829"
         width="63.5"
         height="15.875"
         x="139.37871"
         y="51.315475" />
      <circle
         style="opacity:1;fill:none;fill-opacity:1;stroke:#000000;stroke-width:1.05833328;stroke-miterlimit:4;stroke-dasharray:none;stroke-dashoffset:0;stroke-opacity:1"
         id="circle831"
         cx="70.225067"
         cy="59.090363"
         r="5.1449385" />
      <circle
         r="5.1449385"
         cy="59.090363"
         cx="137.12685"
         id="circle833"
         style="opacity:1;fill:none;fill-opacity:1;stroke:#000000;stroke-width:1.05833328;stroke-miterlimit:4;stroke-dasharray:none;stroke-dashoffset:0;stroke-opacity:1" />
    </g>
    <g
       id="g850">
      <rect
         y="101.58631"
         x="4.5357141"
         height="15.875"
         width="63.5"
         id="rect835"
         style="opacity:1;fill:none;fill-opacity:1;stroke:#000000;stroke-width:1.05833328;stroke-miterlimit:4;stroke-dasharray:none;stroke-dashoffset:0;stroke-opacity:1" />
      <rect
         style="opacity:1;fill:none;fill-opacity:1;stroke:#000000;stroke-width:1.05833328;stroke-miterlimit:4;stroke-dasharray:none;stroke-dashoffset:0;stroke-opacity:1"
         id="rect837"
         width="63.5"
         height="15.875"
         x="71.957207"
         y="101.58631" />
      <rect
         y="101.58631"
         x="139.37871"
         height="15.875"
         width="63.5"
         id="rect839"
         style="opacity:1;fill:none;fill-opacity:1;stroke:#000000;stroke-width:1.05833328;stroke-miterlimit:4;stroke-dasharray:none;stroke-dashoffset:0;stroke-opacity:1" />
      <circle
         r="5.1449385"
         cy="109.3612"
         cx="70.225067"
         id="circle841"
         style="opacity:1;fill:none;fill-opacity:1;stroke:#000000;stroke-width:1.05833328;stroke-miterlimit:4;stroke-dasharray:none;stroke-dashoffset:0;stroke-opacity:1" />
      <circle
         style="opacity:1;fill:none;fill-opacity:1;stroke:#000000;stroke-width:1.05833328;stroke-miterlimit:4;stroke-dasharray:none;stroke-dashoffset:0;stroke-opacity:1"
         id="circle843"
         cx="137.12685"
         cy="109.3612"
         r="5.1449385" />
    </g>
    <path
       style="fill:none;stroke:#000000;stroke-width:0.79374999;stroke-linecap:butt;stroke-linejoin:miter;stroke-miterlimit:4;stroke-dasharray:none;stroke-opacity:1;marker-end:url(#Arrow1Send)"
       d="m 202.85757,59.397389 c 0,0 7.73316,-0.267269 14.43255,-0.267269 4.19184,0 4.06179,5.309879 1.13319,7.913068 -2.61633,2.325615 -7.86683,1.975903 -7.86683,1.975903 H -4.5435818 c 0,0 -6.0252392,0.126611 -6.4032152,6.185608 -0.377976,6.058997 5.4426721,8.112671 5.4426721,8.112671 h 9.2458983"
       id="path866"
       inkscape:connector-curvature="0"
       sodipodi:nodetypes="csscczcc" />
    <path
       sodipodi:nodetypes="csscczcc"
       inkscape:connector-curvature="0"
       id="path1174"
       d="m 202.85757,86.92615 c 0,0 7.73316,-0.267269 14.43255,-0.267269 4.19184,0 4.06179,5.309879 1.13319,7.913068 -2.61633,2.325615 -7.86683,1.975903 -7.86683,1.975903 H -4.5435818 c 0,0 -6.0252392,0.126611 -6.4032152,6.185608 -0.377976,6.059 5.4426721,8.11267 5.4426721,8.11267 h 9.2458983"
       style="fill:none;stroke:#000000;stroke-width:0.79374999;stroke-linecap:butt;stroke-linejoin:miter;stroke-miterlimit:4;stroke-dasharray:none;stroke-opacity:1;marker-end:url(#marker1178)" />
    <text
       xml:space="preserve"
       style="font-style:normal;font-weight:normal;font-size:7.95649195px;line-height:1.25;font-family:sans-serif;letter-spacing:0px;word-spacing:0px;fill:#000000;fill-opacity:1;stroke:none;stroke-width:0.19891229"
       x="16.245279"
       y="86.680008"
       id="text1494"><tspan
         sodipodi:role="line"
         id="tspan1492"
         x="16.245279"
         y="86.680008"
         style="stroke-width:0.19891229">Técnica</tspan></text>
    <text
       id="text1498"
       y="87.751015"
       x="92.767891"
       style="font-style:normal;font-weight:normal;font-size:7.8205924px;line-height:1.25;font-family:sans-serif;letter-spacing:0px;word-spacing:0px;fill:#000000;fill-opacity:1;stroke:none;stroke-width:0.1955148"
       xml:space="preserve"><tspan
         style="stroke-width:0.1955148"
         y="87.751015"
         x="92.767891"
         id="tspan1496"
         sodipodi:role="line">Estilo</tspan></text>
    <text
       xml:space="preserve"
       style="font-style:normal;font-weight:normal;font-size:7.88681507px;line-height:1.25;font-family:sans-serif;letter-spacing:0px;word-spacing:0px;fill:#000000;fill-opacity:1;stroke:none;stroke-width:0.19717038"
       x="145.21852"
       y="86.461189"
       id="text1502"><tspan
         sodipodi:role="line"
         id="tspan1500"
         x="145.21852"
         y="86.461189"
         style="stroke-width:0.19717038">Diagramación</tspan></text>
    <text
       xml:space="preserve"
       style="font-style:normal;font-weight:normal;font-size:10.58333302px;line-height:1.25;font-family:sans-serif;letter-spacing:0px;word-spacing:0px;fill:#000000;fill-opacity:1;stroke:none;stroke-width:0.26458332"
       x="-80.319939"
       y="88.92411"
       id="text1506"><tspan
         sodipodi:role="line"
         id="tspan1504"
         x="-80.319939"
         y="88.92411"
         style="stroke-width:0.26458332">Capítulo n</tspan></text>
    <text
       id="text1510"
       y="61.898811"
       x="-80.319939"
       style="font-style:normal;font-weight:normal;font-size:10.58333302px;line-height:1.25;font-family:sans-serif;letter-spacing:0px;word-spacing:0px;fill:#000000;fill-opacity:1;stroke:none;stroke-width:0.26458332"
       xml:space="preserve"><tspan
         style="stroke-width:0.26458332"
         y="61.898811"
         x="-80.319939"
         id="tspan1508"
         sodipodi:role="line">Capítulo n-1</tspan></text>
    <text
       xml:space="preserve"
       style="font-style:normal;font-weight:normal;font-size:10.58333302px;line-height:1.25;font-family:sans-serif;letter-spacing:0px;word-spacing:0px;fill:#000000;fill-opacity:1;stroke:none;stroke-width:0.26458332"
       x="-80.319939"
       y="111.98066"
       id="text1514"><tspan
         sodipodi:role="line"
         id="tspan1512"
         x="-80.319939"
         y="111.98066"
         style="stroke-width:0.26458332">Capítulo n+1</tspan></text>
  </g>
</svg>
